{
  "type": "postgres",
  "host": "localhost",
  "port": 5432,
  "username": "postgres",
  "password": "1234",
  "database": "sample-nestjs",
  "synchronize": true,
  "entities": [
    "**/*.entity{.ts,.js}"
  ],
  "migrationsTableName": "migration",
  "migrations": [
    "src/migration/*.ts"
  ],
  "cli": {
    "migrationsDir": "src/migration"
  },
  "ssl": false
}